^C:\USERS\ROBERT\DESKTOP\CPPSTATEMACHINE\CPPSTATEMACHINE\MAIN.CPP|C:\USERS\ROBERT\DESKTOP\CPPSTATEMACHINE\CPPSTATEMACHINE\STATE.CPP|C:\USERS\ROBERT\DESKTOP\CPPSTATEMACHINE\CPPSTATEMACHINE\STATEMACHINE.CPP
C:\USERS\ROBERT\DESKTOP\CPPSTATEMACHINE\CPPSTATEMACHINE\DEBUG\VC120.PDB
C:\USERS\ROBERT\DESKTOP\CPPSTATEMACHINE\CPPSTATEMACHINE\DEBUG\VC120.IDB
C:\USERS\ROBERT\DESKTOP\CPPSTATEMACHINE\CPPSTATEMACHINE\DEBUG\MAIN.OBJ
C:\USERS\ROBERT\DESKTOP\CPPSTATEMACHINE\CPPSTATEMACHINE\DEBUG\STATE.OBJ
C:\USERS\ROBERT\DESKTOP\CPPSTATEMACHINE\CPPSTATEMACHINE\DEBUG\STATEMACHINE.OBJ
^C:\USERS\ROBERT\DESKTOP\CPPSTATEMACHINE\CPPSTATEMACHINE\MAIN.CPP
C:\USERS\ROBERT\DESKTOP\CPPSTATEMACHINE\CPPSTATEMACHINE\DEBUG\VC120.PDB
^C:\USERS\ROBERT\DESKTOP\CPPSTATEMACHINE\CPPSTATEMACHINE\STATE.CPP
C:\USERS\ROBERT\DESKTOP\CPPSTATEMACHINE\CPPSTATEMACHINE\DEBUG\VC120.PDB
C:\USERS\ROBERT\DESKTOP\CPPSTATEMACHINE\CPPSTATEMACHINE\DEBUG\VC120.IDB
C:\USERS\ROBERT\DESKTOP\CPPSTATEMACHINE\CPPSTATEMACHINE\DEBUG\STATE.OBJ
^C:\USERS\ROBERT\DESKTOP\CPPSTATEMACHINE\CPPSTATEMACHINE\STATEMACHINE.CPP
C:\USERS\ROBERT\DESKTOP\CPPSTATEMACHINE\CPPSTATEMACHINE\DEBUG\VC120.PDB
C:\USERS\ROBERT\DESKTOP\CPPSTATEMACHINE\CPPSTATEMACHINE\DEBUG\VC120.IDB
C:\USERS\ROBERT\DESKTOP\CPPSTATEMACHINE\CPPSTATEMACHINE\DEBUG\STATEMACHINE.OBJ
^C:\USERS\ROBERT\DESKTOP\CPPSTATEMACHINE\CPPSTATEMACHINE\STATE.CPP|C:\USERS\ROBERT\DESKTOP\CPPSTATEMACHINE\CPPSTATEMACHINE\STATEMACHINE.CPP
C:\USERS\ROBERT\DESKTOP\CPPSTATEMACHINE\CPPSTATEMACHINE\DEBUG\VC120.PDB
C:\USERS\ROBERT\DESKTOP\CPPSTATEMACHINE\CPPSTATEMACHINE\DEBUG\VC120.IDB
C:\USERS\ROBERT\DESKTOP\CPPSTATEMACHINE\CPPSTATEMACHINE\DEBUG\STATE.OBJ
C:\USERS\ROBERT\DESKTOP\CPPSTATEMACHINE\CPPSTATEMACHINE\DEBUG\STATEMACHINE.OBJ
